{
  "page": 1,
  "per_page": 1,
  "photos": [
    {
      "id": 1108099,
      "width": 5184,
      "height": 3888,
      "url": "https://www.pexels.com/photo/two-yellow-labrador-retriever-puppies-1108099/",
      "photographer": "Chevanon Photography",
      "photographer_url": "https://www.pexels.com/@chevanon",
      "photographer_id": 93955,
      "avg_color": "#787A50",
      "src": {
        "original": "https://images.pexels.com/photos/1108099/pexels-photo-1108099.jpeg",
        "large2x": "https://images.pexels.com/photos/1108099/pexels-photo-1108099.jpeg?auto=compress&cs=tinysrgb&dpr=2&h=650&w=940",
        "large": "https://images.pexels.com/photos/1108099/pexels-photo-1108099.jpeg?auto=compress&cs=tinysrgb&h=650&w=940",
        "medium": "https://images.pexels.com/photos/1108099/pexels-photo-1108099.jpeg?auto=compress&cs=tinysrgb&h=350",
        "small": "https://images.pexels.com/photos/1108099/pexels-photo-1108099.jpeg?auto=compress&cs=tinysrgb&h=130",
        "portrait": "https://images.pexels.com/photos/1108099/pexels-photo-1108099.jpeg?auto=compress&cs=tinysrgb&fit=crop&h=1200&w=800",
        "landscape": "https://images.pexels.com/photos/1108099/pexels-photo-1108099.jpeg?auto=compress&cs=tinysrgb&fit=crop&h=627&w=1200",
        "tiny": "https://images.pexels.com/photos/1108099/pexels-photo-1108099.jpeg?auto=compress&cs=tinysrgb&dpr=1&fit=crop&h=200&w=280"
      },
      "liked": false,
      "alt": "Two Yellow Labrador Retriever Puppies"
    }
  ],
  "total_results": 8000,
  "next_page": "https://api.pexels.com/v1/search/?page=2&per_page=1&query=dog"
}